﻿[
	{
		"Active": 1,
		"SequenceNumber": -1,
		"SportType": "Futures and Props",
		"SportSubTypeId": -1,
		"Selected": false,
		"Class" : "",
		"jsAction" : "menu.OpenFuturesAndProps()",
		"target" : ""
	},
	{
		"Active": 1,
		"SequenceNumber": 6000,
		"SportType": "Horse Racing",
		"SportSubTypeId": -1,
		"Selected": false,
		"Class" : "",
		"jsAction" : "menu.OpenHorses()",
		"target" : "_blank"
	},
	{
		"Active": 1,
		"SequenceNumber": 5000,
		"SportType": "Live Betting",
		"SportSubTypeId": -1,
		"Selected": false,
		"Class" : "",
		"jsAction": "menu.OpenLiveBetting()",
		"target" : "_blank"
	}
]